^C:\DEVELOPMENT\ASMS_TRACKER\ASMS_TRACKER\SRC\COLOTRACKER.CPP
/c /ID:\Downloads\openCV2.4.9\opencv\build\include /ID:\Downloads\openCV2.4.9\opencv\build\include\opencv /IC:\Development\ASMS_tracker\ASMS_tracker\src /Zi /nologo /Wall /WX- /Od /Ob0 /Oy- /D WIN32 /D _WINDOWS /D _DEBUG /D "CMAKE_INTDIR=\"Debug\"" /D _MBCS /Gm- /EHsc /RTC1 /MDd /GS /fp:precise /Zc:wchar_t /Zc:forScope /GR /Fo"COLOR.DIR\DEBUG\\" /Fd"COLOR.DIR\DEBUG\VC110.PDB" /Gd /TP /analyze-  -pedantic -O3  C:\DEVELOPMENT\ASMS_TRACKER\ASMS_TRACKER\SRC\COLOTRACKER.CPP
^C:\DEVELOPMENT\ASMS_TRACKER\ASMS_TRACKER\SRC\HISTOGRAM.CPP
/c /ID:\Downloads\openCV2.4.9\opencv\build\include /ID:\Downloads\openCV2.4.9\opencv\build\include\opencv /IC:\Development\ASMS_tracker\ASMS_tracker\src /Zi /nologo /Wall /WX- /Od /Ob0 /Oy- /D WIN32 /D _WINDOWS /D _DEBUG /D "CMAKE_INTDIR=\"Debug\"" /D _MBCS /Gm- /EHsc /RTC1 /MDd /GS /fp:precise /Zc:wchar_t /Zc:forScope /GR /Fo"COLOR.DIR\DEBUG\\" /Fd"COLOR.DIR\DEBUG\VC110.PDB" /Gd /TP /analyze-  -pedantic -O3  C:\DEVELOPMENT\ASMS_TRACKER\ASMS_TRACKER\SRC\HISTOGRAM.CPP
^C:\DEVELOPMENT\ASMS_TRACKER\ASMS_TRACKER\SRC\REGION.CPP
/c /ID:\Downloads\openCV2.4.9\opencv\build\include /ID:\Downloads\openCV2.4.9\opencv\build\include\opencv /IC:\Development\ASMS_tracker\ASMS_tracker\src /Zi /nologo /Wall /WX- /Od /Ob0 /Oy- /D WIN32 /D _WINDOWS /D _DEBUG /D "CMAKE_INTDIR=\"Debug\"" /D _MBCS /Gm- /EHsc /RTC1 /MDd /GS /fp:precise /Zc:wchar_t /Zc:forScope /GR /Fo"COLOR.DIR\DEBUG\\" /Fd"COLOR.DIR\DEBUG\VC110.PDB" /Gd /TP /analyze-  -pedantic -O3  C:\DEVELOPMENT\ASMS_TRACKER\ASMS_TRACKER\SRC\REGION.CPP
