^C:\DEVELOPMENT\ASMS_TRACKER\ASMS_TRACKER\SRC\COLOTRACKER.CPP|C:\DEVELOPMENT\ASMS_TRACKER\ASMS_TRACKER\SRC\HISTOGRAM.CPP|C:\DEVELOPMENT\ASMS_TRACKER\ASMS_TRACKER\SRC\REGION.CPP
C:\DEVELOPMENT\ASMS_TRACKER\ASMS_TRACKER\SRC\COLOR.DIR\DEBUG\REGION.OBJ
C:\DEVELOPMENT\ASMS_TRACKER\ASMS_TRACKER\SRC\COLOR.DIR\DEBUG\HISTOGRAM.OBJ
C:\DEVELOPMENT\ASMS_TRACKER\ASMS_TRACKER\SRC\COLOR.DIR\DEBUG\COLOTRACKER.OBJ
^C:\DEVELOPMENT\ASMS_TRACKER\ASMS_TRACKER\SRC\COLOTRACKER.CPP
C:\DEVELOPMENT\ASMS_TRACKER\ASMS_TRACKER\SRC\COLOR.DIR\DEBUG\VC110.PDB
^C:\DEVELOPMENT\ASMS_TRACKER\ASMS_TRACKER\SRC\HISTOGRAM.CPP
C:\DEVELOPMENT\ASMS_TRACKER\ASMS_TRACKER\SRC\COLOR.DIR\DEBUG\VC110.PDB
^C:\DEVELOPMENT\ASMS_TRACKER\ASMS_TRACKER\SRC\REGION.CPP
C:\DEVELOPMENT\ASMS_TRACKER\ASMS_TRACKER\SRC\COLOR.DIR\DEBUG\VC110.PDB
