^C:\DEVELOPMENT\ASMS_TRACKER\ASMS_TRACKER\SRC\COLOR.DIR\DEBUG\COLOTRACKER.OBJ|C:\DEVELOPMENT\ASMS_TRACKER\ASMS_TRACKER\SRC\COLOR.DIR\DEBUG\HISTOGRAM.OBJ|C:\DEVELOPMENT\ASMS_TRACKER\ASMS_TRACKER\SRC\COLOR.DIR\DEBUG\REGION.OBJ
C:\WINDOWS\SYSTEM32\TZRES.DLL
C:\DEVELOPMENT\ASMS_TRACKER\ASMS_TRACKER\SRC\COLOR.DIR\DEBUG\COLOTRACKER.OBJ
C:\DEVELOPMENT\ASMS_TRACKER\ASMS_TRACKER\SRC\COLOR.DIR\DEBUG\HISTOGRAM.OBJ
C:\DEVELOPMENT\ASMS_TRACKER\ASMS_TRACKER\SRC\COLOR.DIR\DEBUG\REGION.OBJ
C:\WINDOWS\GLOBALIZATION\SORTING\SORTDEFAULT.NLS
